{
  "students": [
    {
      "id": 1,
      "name": "Arun",
      "hobby": "playing",
      "details": "Arun's details"
    },
    {
      "id": 2,
      "name": "Barun",
      "hobby": "playing",
      "details": "Barun's details"
    },
    {
      "id": 3,
      "name": "Torun",
      "hobby": "Playing",
      "details": "Torun's details"
    }
  ],
  "teachers": [
    {
      "id": 1,
      "name": "Rafi",
      "subject": "English"
    },
    {
      "id": 2,
      "name": "Shanto",
      "subject": "Bangla"
    }
  ]
}